simulation/qsim/lab6.msim.vcd
$comment
	File created using the following command:
		vcd file lab6.msim.vcd -direction
$end
$date
	Sat Dec 07 12:38:58 2024
$end
$version
	ModelSim Version 10.1d
$end
$timescale
	1ps
$end
$scope module PROBLEM_1_vlg_vec_tst $end
$var reg 1 ! clk $end
$var reg 1 " data $end
$var reg 1 # enable $end
$var wire 1 $ A [7] $end
$var wire 1 % A [6] $end
$var wire 1 & A [5] $end
$var wire 1 ' A [4] $end
$var wire 1 ( A [3] $end
$var wire 1 ) A [2] $end
$var wire 1 * A [1] $end
$var wire 1 + A [0] $end
$var wire 1 , B [7] $end
$var wire 1 - B [6] $end
$var wire 1 . B [5] $end
$var wire 1 / B [4] $end
$var wire 1 0 B [3] $end
$var wire 1 1 B [2] $end
$var wire 1 2 B [1] $end
$var wire 1 3 B [0] $end
$var wire 1 4 id [6] $end
$var wire 1 5 id [5] $end
$var wire 1 6 id [4] $end
$var wire 1 7 id [3] $end
$var wire 1 8 id [2] $end
$var wire 1 9 id [1] $end
$var wire 1 : id [0] $end
$var wire 1 ; neg1 [6] $end
$var wire 1 < neg1 [5] $end
$var wire 1 = neg1 [4] $end
$var wire 1 > neg1 [3] $end
$var wire 1 ? neg1 [2] $end
$var wire 1 @ neg1 [1] $end
$var wire 1 A neg1 [0] $end
$var wire 1 B neg2 [6] $end
$var wire 1 C neg2 [5] $end
$var wire 1 D neg2 [4] $end
$var wire 1 E neg2 [3] $end
$var wire 1 F neg2 [2] $end
$var wire 1 G neg2 [1] $end
$var wire 1 H neg2 [0] $end
$var wire 1 I opcode [15] $end
$var wire 1 J opcode [14] $end
$var wire 1 K opcode [13] $end
$var wire 1 L opcode [12] $end
$var wire 1 M opcode [11] $end
$var wire 1 N opcode [10] $end
$var wire 1 O opcode [9] $end
$var wire 1 P opcode [8] $end
$var wire 1 Q opcode [7] $end
$var wire 1 R opcode [6] $end
$var wire 1 S opcode [5] $end
$var wire 1 T opcode [4] $end
$var wire 1 U opcode [3] $end
$var wire 1 V opcode [2] $end
$var wire 1 W opcode [1] $end
$var wire 1 X opcode [0] $end
$var wire 1 Y R1 [3] $end
$var wire 1 Z R1 [2] $end
$var wire 1 [ R1 [1] $end
$var wire 1 \ R1 [0] $end
$var wire 1 ] R2 [3] $end
$var wire 1 ^ R2 [2] $end
$var wire 1 _ R2 [1] $end
$var wire 1 ` R2 [0] $end
$var wire 1 a seg1 [6] $end
$var wire 1 b seg1 [5] $end
$var wire 1 c seg1 [4] $end
$var wire 1 d seg1 [3] $end
$var wire 1 e seg1 [2] $end
$var wire 1 f seg1 [1] $end
$var wire 1 g seg1 [0] $end
$var wire 1 h seg2 [6] $end
$var wire 1 i seg2 [5] $end
$var wire 1 j seg2 [4] $end
$var wire 1 k seg2 [3] $end
$var wire 1 l seg2 [2] $end
$var wire 1 m seg2 [1] $end
$var wire 1 n seg2 [0] $end
$var wire 1 o studentID [3] $end
$var wire 1 p studentID [2] $end
$var wire 1 q studentID [1] $end
$var wire 1 r studentID [0] $end
$var wire 1 s sampler $end
$scope module i1 $end
$var wire 1 t gnd $end
$var wire 1 u vcc $end
$var wire 1 v unknown $end
$var tri1 1 w devclrn $end
$var tri1 1 x devpor $end
$var tri1 1 y devoe $end
$var wire 1 z data~combout $end
$var wire 1 { inst3|Selector0~0_combout $end
$var wire 1 | inst3|yfsm.s0~regout $end
$var wire 1 } inst3|Selector1~0_combout $end
$var wire 1 ~ inst3|yfsm.s1~regout $end
$var wire 1 !! inst3|Selector2~0_combout $end
$var wire 1 "! inst3|yfsm.s2~regout $end
$var wire 1 #! inst3|WideOr3~0_combout $end
$var wire 1 $! inst3|Selector3~0_combout $end
$var wire 1 %! inst3|yfsm.s3~regout $end
$var wire 1 &! inst3|Selector4~0_combout $end
$var wire 1 '! inst3|yfsm.s4~regout $end
$var wire 1 (! inst3|Selector5~0_combout $end
$var wire 1 )! inst3|yfsm.s5~regout $end
$var wire 1 *! inst3|WideOr1~0_combout $end
$var wire 1 +! inst3|Selector6~0_combout $end
$var wire 1 ,! inst3|yfsm.s6~regout $end
$var wire 1 -! inst3|Selector7~0_combout $end
$var wire 1 .! inst3|yfsm.s7~regout $end
$var wire 1 /! inst5|Mux0~0_combout $end
$var wire 1 0! inst5|Mux1~0_combout $end
$var wire 1 1! inst5|Mux2~0_combout $end
$var wire 1 2! inst5|Mux4~0_combout $end
$var wire 1 3! inst5|Mux6~0_combout $end
$var wire 1 4! clk~combout $end
$var wire 1 5! inst3|WideOr0~0_combout $end
$var wire 1 6! inst3|WideOr2~0_combout $end
$var wire 1 7! inst3|WideOr1~1_combout $end
$var wire 1 8! inst|Selector4~0_combout $end
$var wire 1 9! enable~combout $end
$var wire 1 :! inst4|Mux8~0_combout $end
$var wire 1 ;! inst4|Mux9~0_combout $end
$var wire 1 <! inst4|Mux10~0_combout $end
$var wire 1 =! inst4|Mux11~0_combout $end
$var wire 1 >! inst4|Mux12~0_combout $end
$var wire 1 ?! inst4|Mux13~0_combout $end
$var wire 1 @! inst4|Mux14~0_combout $end
$var wire 1 A! inst4|Mux15~0_combout $end
$var wire 1 B! inst|Selector5~0_combout $end
$var wire 1 C! inst|Selector6~0_combout $end
$var wire 1 D! inst|Selector6~1_combout $end
$var wire 1 E! inst|Selector7~0_combout $end
$var wire 1 F! inst|Selector1~0_combout $end
$var wire 1 G! inst|Selector3~0_combout $end
$var wire 1 H! inst6|Mux0~0_combout $end
$var wire 1 I! inst6|Mux1~0_combout $end
$var wire 1 J! inst6|Mux2~0_combout $end
$var wire 1 K! inst6|Mux3~0_combout $end
$var wire 1 L! inst6|Mux4~0_combout $end
$var wire 1 M! inst6|Mux5~0_combout $end
$var wire 1 N! inst6|Mux6~0_combout $end
$var wire 1 O! inst7|Mux0~0_combout $end
$var wire 1 P! inst7|Mux1~0_combout $end
$var wire 1 Q! inst7|Mux2~0_combout $end
$var wire 1 R! inst7|Mux3~0_combout $end
$var wire 1 S! inst7|Mux4~0_combout $end
$var wire 1 T! inst7|Mux5~0_combout $end
$var wire 1 U! inst7|Mux6~0_combout $end
$var wire 1 V! inst3|WideOr3~1_combout $end
$var wire 1 W! inst3|student_id [3] $end
$var wire 1 X! inst3|student_id [2] $end
$var wire 1 Y! inst3|student_id [1] $end
$var wire 1 Z! inst3|student_id [0] $end
$var wire 1 [! inst|Result [7] $end
$var wire 1 \! inst|Result [6] $end
$var wire 1 ]! inst|Result [5] $end
$var wire 1 ^! inst|Result [4] $end
$var wire 1 _! inst|Result [3] $end
$var wire 1 `! inst|Result [2] $end
$var wire 1 a! inst|Result [1] $end
$var wire 1 b! inst|Result [0] $end
$upscope $end
$upscope $end
$enddefinitions $end
#0
$dumpvars
0!
1"
1#
0+
1*
0)
0(
1'
0&
0%
0$
03
02
11
00
0/
1.
1-
0,
0:
09
08
07
06
05
14
1A
1@
1?
1>
1=
1<
1;
1H
1G
1F
1E
1D
1C
1B
1X
0W
0V
0U
0T
0S
0R
0Q
0P
0O
0N
0M
0L
0K
0J
0I
0\
0[
0Z
0Y
0`
0_
0^
0]
0g
0f
0e
0d
0c
0b
1a
0n
0m
0l
0k
0j
0i
1h
0r
0q
0p
0o
xs
0t
1u
xv
1w
1x
1y
1z
1{
0|
1}
0~
0!!
0"!
0#!
0$!
0%!
0&!
0'!
0(!
0)!
1*!
0+!
0,!
0-!
0.!
0/!
10!
11!
12!
13!
04!
15!
16!
07!
08!
19!
0:!
0;!
0<!
0=!
0>!
0?!
0@!
1A!
1B!
0C!
1D!
0E!
1F!
1G!
1H!
0I!
0J!
0K!
0L!
1M!
0N!
1O!
0P!
0Q!
0R!
0S!
1T!
0U!
1V!
zZ!
0Y!
zX!
zW!
0b!
0a!
0`!
0_!
0^!
z]!
0\!
z[!
$end
#10000
1!
14!
0s
1^!
1\!
1a!
1`!
1~
1|
1R!
1Q!
1P!
0M!
0H!
0F!
1!!
0}
0V!
06!
1#!
1`
1^
1[
1_
1Z
0G!
0A!
1@!
18!
03!
01!
00!
1k
1j
1i
0a
1f
1r
0X
1W
1:
16
17
15
#20000
0!
04!
1s
#30000
1!
14!
0s
0^!
0\!
1_!
1"!
0~
1S!
0R!
0Q!
0O!
1V!
1C!
16!
02!
1Y!
1$!
0#!
0!!
1F!
17!
0`
0^
1]
1Y
0;
0B
0D!
1E!
0@!
1?!
13!
11!
1/!
1l
0k
0j
0h
1q
0r
18
0W
1V
0:
06
07
04
#40000
0!
04!
1s
#50000
1!
14!
0s
1\!
1b!
0a!
1%!
0"!
0T!
0S!
0P!
1J!
1D!
1&!
0$!
0V!
0C!
06!
12!
0Y!
1#!
1^
1\
0[
1G!
0?!
1>!
03!
01!
0/!
0l
0i
1c
0q
1m
1r
08
0V
1U
1:
16
17
14
#60000
0!
04!
1s
#70000
1!
14!
0s
1^!
1a!
1'!
0%!
1T!
1R!
1Q!
1P!
1O!
1M!
1K!
1I!
1H!
0F!
1C!
07!
16!
1Y!
0*!
1(!
0&!
05!
1`
1[
0D!
0G!
0B!
0>!
1=!
13!
1k
1j
1i
1h
1d
1b
1a
1q
0m
0f
1p
0U
1T
0:
#80000
0!
04!
1s
#90000
1!
14!
0s
0^!
0\!
0a!
0`!
1)!
0'!
0R!
0Q!
0P!
1N!
1V!
1+!
0(!
0#!
06!
0Y!
0`
0^
0[
0_
0Z
03!
10!
1/!
0E!
0=!
1<!
08!
0k
0j
0i
1g
0q
0r
0T
1S
1:
05
04
#100000
0!
04!
1s
#110000
1!
14!
0s
0b!
0_!
1,!
0)!
0N!
0K!
0J!
0I!
16!
1-!
0+!
0V!
1F!
0C!
17!
1*!
1#!
0\
0]
0Y
1;
1B
1G!
0<!
1;!
1D!
1B!
00!
0/!
0g
0d
0c
0b
1r
0p
0S
1R
15
14
#120000
0!
04!
1s
#130000
1!
14!
0s
1^!
1\!
1a!
1`!
1.!
0,!
1R!
1Q!
1P!
0M!
0H!
1V!
13!
11!
10!
1/!
0-!
0{
06!
1`
1^
1[
1_
1Z
1o
0;!
1:!
1k
1j
1i
0a
1f
0r
0:
06
07
05
04
0R
1Q
#140000
0!
04!
1s
#150000
1!
14!
0s
0.!
0|
03!
01!
00!
0/!
1{
07!
16!
15!
0#!
1}
0o
1A!
0:!
13!
11!
10!
1:
16
17
15
14
1X
0Q
0:
06
07
05
#160000
0!
04!
1s
#170000
1!
14!
0s
1~
1|
0F!
1!!
0}
0V!
06!
1#!
0G!
0A!
1@!
18!
03!
01!
00!
1r
0X
1W
1:
16
17
15
#180000
0!
04!
1s
#190000
1!
14!
0s
0^!
0\!
1_!
1"!
0~
1S!
0R!
0Q!
0O!
1V!
1C!
16!
02!
1Y!
1$!
0#!
0!!
1F!
17!
0`
0^
1]
1Y
0;
0B
0D!
1E!
0@!
1?!
13!
11!
1/!
1l
0k
0j
0h
1q
0r
18
0W
1V
0:
06
07
04
#200000
0!
04!
1s
#210000
1!
14!
0s
1\!
1b!
0a!
1%!
0"!
0T!
0S!
0P!
1J!
1D!
1&!
0$!
0V!
0C!
06!
12!
0Y!
1#!
1^
1\
0[
1G!
0?!
1>!
03!
01!
0/!
0l
0i
1c
0q
1m
1r
08
0V
1U
1:
16
17
14
#220000
0!
04!
1s
#230000
1!
14!
0s
1^!
1a!
1'!
0%!
1T!
1R!
1Q!
1P!
1O!
1M!
1K!
1I!
1H!
0F!
1C!
07!
16!
1Y!
0*!
1(!
0&!
05!
1`
1[
0D!
0G!
0B!
0>!
1=!
13!
1k
1j
1i
1h
1d
1b
1a
1q
0m
0f
1p
0U
1T
0:
#240000
0!
04!
1s
#250000
1!
14!
0s
0^!
0\!
0a!
0`!
1)!
0'!
0R!
0Q!
0P!
1N!
1V!
1+!
0(!
0#!
06!
0Y!
0`
0^
0[
0_
0Z
03!
10!
1/!
0E!
0=!
1<!
08!
0k
0j
0i
1g
0q
0r
0T
1S
1:
05
04
#260000
0!
04!
1s
#270000
1!
14!
0s
0b!
0_!
1,!
0)!
0N!
0K!
0J!
0I!
16!
1-!
0+!
0V!
1F!
0C!
17!
1*!
1#!
0\
0]
0Y
1;
1B
1G!
0<!
1;!
1D!
1B!
00!
0/!
0g
0d
0c
0b
1r
0p
0S
1R
15
14
#280000
0!
04!
1s
#290000
1!
14!
0s
1^!
1\!
1a!
1`!
1.!
0,!
1R!
1Q!
1P!
0M!
0H!
1V!
13!
11!
10!
1/!
0-!
0{
06!
1`
1^
1[
1_
1Z
1o
0;!
1:!
1k
1j
1i
0a
1f
0r
0:
06
07
05
04
0R
1Q
#300000
0!
04!
1s
#310000
1!
14!
0s
0.!
0|
03!
01!
00!
0/!
1{
07!
16!
15!
0#!
1}
0o
1A!
0:!
13!
11!
10!
1:
16
17
15
14
1X
0Q
0:
06
07
05
#320000
0!
04!
1s
#330000
1!
14!
0s
1~
1|
0F!
1!!
0}
0V!
06!
1#!
0G!
0A!
1@!
18!
03!
01!
00!
1r
0X
1W
1:
16
17
15
#340000
0!
04!
1s
#350000
1!
14!
0s
0^!
0\!
1_!
1"!
0~
1S!
0R!
0Q!
0O!
1V!
1C!
16!
02!
1Y!
1$!
0#!
0!!
1F!
17!
0`
0^
1]
1Y
0;
0B
0D!
1E!
0@!
1?!
13!
11!
1/!
1l
0k
0j
0h
1q
0r
18
0W
1V
0:
06
07
04
#360000
0!
04!
1s
#370000
1!
14!
0s
1\!
1b!
0a!
1%!
0"!
0T!
0S!
0P!
1J!
1D!
1&!
0$!
0V!
0C!
06!
12!
0Y!
1#!
1^
1\
0[
1G!
0?!
1>!
03!
01!
0/!
0l
0i
1c
0q
1m
1r
08
0V
1U
1:
16
17
14
#380000
0!
04!
1s
#390000
1!
14!
0s
1^!
1a!
1'!
0%!
1T!
1R!
1Q!
1P!
1O!
1M!
1K!
1I!
1H!
0F!
1C!
07!
16!
1Y!
0*!
1(!
0&!
05!
1`
1[
0D!
0G!
0B!
0>!
1=!
13!
1k
1j
1i
1h
1d
1b
1a
1q
0m
0f
1p
0U
1T
0:
#400000
0!
04!
1s
#410000
1!
14!
0s
0^!
0\!
0a!
0`!
1)!
0'!
0R!
0Q!
0P!
1N!
1V!
1+!
0(!
0#!
06!
0Y!
0`
0^
0[
0_
0Z
03!
10!
1/!
0E!
0=!
1<!
08!
0k
0j
0i
1g
0q
0r
0T
1S
1:
05
04
#420000
0!
04!
1s
#430000
1!
14!
0s
0b!
0_!
1,!
0)!
0N!
0K!
0J!
0I!
16!
1-!
0+!
0V!
1F!
0C!
17!
1*!
1#!
0\
0]
0Y
1;
1B
1G!
0<!
1;!
1D!
1B!
00!
0/!
0g
0d
0c
0b
1r
0p
0S
1R
15
14
#440000
0!
04!
1s
#450000
1!
14!
0s
1^!
1\!
1a!
1`!
1.!
0,!
1R!
1Q!
1P!
0M!
0H!
1V!
13!
11!
10!
1/!
0-!
0{
06!
1`
1^
1[
1_
1Z
1o
0;!
1:!
1k
1j
1i
0a
1f
0r
0:
06
07
05
04
0R
1Q
#460000
0!
04!
1s
#470000
1!
14!
0s
0.!
0|
03!
01!
00!
0/!
1{
07!
16!
15!
0#!
1}
0o
1A!
0:!
13!
11!
10!
1:
16
17
15
14
1X
0Q
0:
06
07
05
#480000
0!
04!
1s
#490000
1!
14!
0s
1~
1|
0F!
1!!
0}
0V!
06!
1#!
0G!
0A!
1@!
18!
03!
01!
00!
1r
0X
1W
1:
16
17
15
#500000
0!
04!
1s
#510000
1!
14!
0s
0^!
0\!
1_!
1"!
0~
1S!
0R!
0Q!
0O!
1V!
1C!
16!
02!
1Y!
1$!
0#!
0!!
1F!
17!
0`
0^
1]
1Y
0;
0B
0D!
1E!
0@!
1?!
13!
11!
1/!
1l
0k
0j
0h
1q
0r
18
0W
1V
0:
06
07
04
#520000
0!
04!
1s
#530000
1!
14!
0s
1\!
1b!
0a!
1%!
0"!
0T!
0S!
0P!
1J!
1D!
1&!
0$!
0V!
0C!
06!
12!
0Y!
1#!
1^
1\
0[
1G!
0?!
1>!
03!
01!
0/!
0l
0i
1c
0q
1m
1r
08
0V
1U
1:
16
17
14
#540000
0!
04!
1s
#550000
1!
14!
0s
1^!
1a!
1'!
0%!
1T!
1R!
1Q!
1P!
1O!
1M!
1K!
1I!
1H!
0F!
1C!
07!
16!
1Y!
0*!
1(!
0&!
05!
1`
1[
0D!
0G!
0B!
0>!
1=!
13!
1k
1j
1i
1h
1d
1b
1a
1q
0m
0f
1p
0U
1T
0:
#560000
0!
04!
1s
#570000
1!
14!
0s
0^!
0\!
0a!
0`!
1)!
0'!
0R!
0Q!
0P!
1N!
1V!
1+!
0(!
0#!
06!
0Y!
0`
0^
0[
0_
0Z
03!
10!
1/!
0E!
0=!
1<!
08!
0k
0j
0i
1g
0q
0r
0T
1S
1:
05
04
#580000
0!
04!
1s
#590000
1!
14!
0s
0b!
0_!
1,!
0)!
0N!
0K!
0J!
0I!
16!
1-!
0+!
0V!
1F!
0C!
17!
1*!
1#!
0\
0]
0Y
1;
1B
1G!
0<!
1;!
1D!
1B!
00!
0/!
0g
0d
0c
0b
1r
0p
0S
1R
15
14
#600000
0!
04!
1s
#610000
1!
14!
0s
1^!
1\!
1a!
1`!
1.!
0,!
1R!
1Q!
1P!
0M!
0H!
1V!
13!
11!
10!
1/!
0-!
0{
06!
1`
1^
1[
1_
1Z
1o
0;!
1:!
1k
1j
1i
0a
1f
0r
0:
06
07
05
04
0R
1Q
#620000
0!
04!
1s
#630000
1!
14!
0s
0.!
0|
03!
01!
00!
0/!
1{
07!
16!
15!
0#!
1}
0o
1A!
0:!
13!
11!
10!
1:
16
17
15
14
1X
0Q
0:
06
07
05
#640000
0!
04!
1s
#650000
1!
14!
0s
1~
1|
0F!
1!!
0}
0V!
06!
1#!
0G!
0A!
1@!
18!
03!
01!
00!
1r
0X
1W
1:
16
17
15
#660000
0!
04!
1s
#670000
1!
14!
0s
0^!
0\!
1_!
1"!
0~
1S!
0R!
0Q!
0O!
1V!
1C!
16!
02!
1Y!
1$!
0#!
0!!
1F!
17!
0`
0^
1]
1Y
0;
0B
0D!
1E!
0@!
1?!
13!
11!
1/!
1l
0k
0j
0h
1q
0r
18
0W
1V
0:
06
07
04
#680000
0!
04!
1s
#690000
1!
14!
0s
1\!
1b!
0a!
1%!
0"!
0T!
0S!
0P!
1J!
1D!
1&!
0$!
0V!
0C!
06!
12!
0Y!
1#!
1^
1\
0[
1G!
0?!
1>!
03!
01!
0/!
0l
0i
1c
0q
1m
1r
08
0V
1U
1:
16
17
14
#700000
0!
04!
1s
#710000
1!
14!
0s
1^!
1a!
1'!
0%!
1T!
1R!
1Q!
1P!
1O!
1M!
1K!
1I!
1H!
0F!
1C!
07!
16!
1Y!
0*!
1(!
0&!
05!
1`
1[
0D!
0G!
0B!
0>!
1=!
13!
1k
1j
1i
1h
1d
1b
1a
1q
0m
0f
1p
0U
1T
0:
#720000
0!
04!
1s
#730000
1!
14!
0s
0^!
0\!
0a!
0`!
1)!
0'!
0R!
0Q!
0P!
1N!
1V!
1+!
0(!
0#!
06!
0Y!
0`
0^
0[
0_
0Z
03!
10!
1/!
0E!
0=!
1<!
08!
0k
0j
0i
1g
0q
0r
0T
1S
1:
05
04
#740000
0!
04!
1s
#750000
1!
14!
0s
0b!
0_!
1,!
0)!
0N!
0K!
0J!
0I!
16!
1-!
0+!
0V!
1F!
0C!
17!
1*!
1#!
0\
0]
0Y
1;
1B
1G!
0<!
1;!
1D!
1B!
00!
0/!
0g
0d
0c
0b
1r
0p
0S
1R
15
14
#760000
0!
04!
1s
#770000
1!
14!
0s
1^!
1\!
1a!
1`!
1.!
0,!
1R!
1Q!
1P!
0M!
0H!
1V!
13!
11!
10!
1/!
0-!
0{
06!
1`
1^
1[
1_
1Z
1o
0;!
1:!
1k
1j
1i
0a
1f
0r
0:
06
07
05
04
0R
1Q
#780000
0!
04!
1s
#790000
1!
14!
0s
0.!
0|
03!
01!
00!
0/!
1{
07!
16!
15!
0#!
1}
0o
1A!
0:!
13!
11!
10!
1:
16
17
15
14
1X
0Q
0:
06
07
05
#800000
0!
04!
1s
#810000
1!
14!
0s
1~
1|
0F!
1!!
0}
0V!
06!
1#!
0G!
0A!
1@!
18!
03!
01!
00!
1r
0X
1W
1:
16
17
15
#820000
0!
04!
1s
#830000
1!
14!
0s
0^!
0\!
1_!
1"!
0~
1S!
0R!
0Q!
0O!
1V!
1C!
16!
02!
1Y!
1$!
0#!
0!!
1F!
17!
0`
0^
1]
1Y
0;
0B
0D!
1E!
0@!
1?!
13!
11!
1/!
1l
0k
0j
0h
1q
0r
18
0W
1V
0:
06
07
04
#840000
0!
04!
1s
#850000
1!
14!
0s
1\!
1b!
0a!
1%!
0"!
0T!
0S!
0P!
1J!
1D!
1&!
0$!
0V!
0C!
06!
12!
0Y!
1#!
1^
1\
0[
1G!
0?!
1>!
03!
01!
0/!
0l
0i
1c
0q
1m
1r
08
0V
1U
1:
16
17
14
#860000
0!
04!
1s
#870000
1!
14!
0s
1^!
1a!
1'!
0%!
1T!
1R!
1Q!
1P!
1O!
1M!
1K!
1I!
1H!
0F!
1C!
07!
16!
1Y!
0*!
1(!
0&!
05!
1`
1[
0D!
0G!
0B!
0>!
1=!
13!
1k
1j
1i
1h
1d
1b
1a
1q
0m
0f
1p
0U
1T
0:
#880000
0!
04!
1s
#890000
1!
14!
0s
0^!
0\!
0a!
0`!
1)!
0'!
0R!
0Q!
0P!
1N!
1V!
1+!
0(!
0#!
06!
0Y!
0`
0^
0[
0_
0Z
03!
10!
1/!
0E!
0=!
1<!
08!
0k
0j
0i
1g
0q
0r
0T
1S
1:
05
04
#900000
0!
04!
1s
#910000
1!
14!
0s
0b!
0_!
1,!
0)!
0N!
0K!
0J!
0I!
16!
1-!
0+!
0V!
1F!
0C!
17!
1*!
1#!
0\
0]
0Y
1;
1B
1G!
0<!
1;!
1D!
1B!
00!
0/!
0g
0d
0c
0b
1r
0p
0S
1R
15
14
#920000
0!
04!
1s
#930000
1!
14!
0s
1^!
1\!
1a!
1`!
1.!
0,!
1R!
1Q!
1P!
0M!
0H!
1V!
13!
11!
10!
1/!
0-!
0{
06!
1`
1^
1[
1_
1Z
1o
0;!
1:!
1k
1j
1i
0a
1f
0r
0:
06
07
05
04
0R
1Q
#940000
0!
04!
1s
#950000
1!
14!
0s
0.!
0|
03!
01!
00!
0/!
1{
07!
16!
15!
0#!
1}
0o
1A!
0:!
13!
11!
10!
1:
16
17
15
14
1X
0Q
0:
06
07
05
#960000
0!
04!
1s
#970000
1!
14!
0s
1~
1|
0F!
1!!
0}
0V!
06!
1#!
0G!
0A!
1@!
18!
03!
01!
00!
1r
0X
1W
1:
16
17
15
#980000
0!
04!
1s
#990000
1!
14!
0s
0^!
0\!
1_!
1"!
0~
1S!
0R!
0Q!
0O!
1V!
1C!
16!
02!
1Y!
1$!
0#!
0!!
1F!
17!
0`
0^
1]
1Y
0;
0B
0D!
1E!
0@!
1?!
13!
11!
1/!
1l
0k
0j
0h
1q
0r
18
0W
1V
0:
06
07
04
